Chapter 1 Datasets in stelfi | Fitting models using stelfi
…
bigfoot

The Bigfoot Field Researchers Organization (BFRO) documents Bigfoot (Sasquatch) sightings; some data have been collated and packaged in stelfi asbigfoot.

data("bigfoot", package = "stelfi")
bigfoot

## Simple feature collection with 972 features and 27 fields
## Geometry type: POINT
## Dimension:     XY
## Bounding box:  xmin: -124.5301 ymin: 25.84875 xmax: -70.75587 ymax: 48.9058
## CRS:           +proj=longlat +datum=WGS84 +no_defs +ellps=WGS84 +towgs84=0,0,0
## # A tibble: 972 × 28
##    observed  locat…¹ county state season title date       number class…² geohash
##  * <chr>     <chr>   <chr>  <chr> <chr>  <chr> <date>      <dbl> <chr>   <chr>  
##  1 "For the… This l… Shann… Sout… Fall   Repo… 2002-12-04   5173 Class A 9xxntv…
##  2 "My fami… East o… Wayne… New … Fall   Repo… 2003-09-20  26566 Class A dr9q4m…
##  3 "While t… Ward C… Ward … Nort… Spring Repo… 2000-04-21    751 Class A c8xfw2…
##  4 "(Please… <NA>    Mount… Nort… Winter Repo… 2004-02-22   8165 Class A c8qzwb…
##  5 "I was c… forest… Warre… New … Summer Repo… 2005-12-21  13276 Class B dr4xfu…
##  6 "My summ… We wer… Taos … New … Spring Repo… 2000-05-17   4904 Class B 9wt01q…
##  7 "On Aug … From G… McLea… Nort… Summer Repo… 2005-08-27  12562 Class A c8rx3m…
##  8 "Foot pr… The lo… McKen… Nort… Winter Repo… 2004-02-26   8130 Class B c8qyyr…
##  9 "The fol… Georgi… Sarpy… Nebr… Summer Repo… 2005-01-06   7809 Class A 9z7f40…
## 10 "We live… (Locat… Dougl… Nebr… Summer Repo… 2005-08-13  12482 Class A 9z7f97…
## # … with 962 more rows, 18 more variables: temperature_high <dbl>,
## #   temperature_mid <dbl>, temperature_low <dbl>, dew_point <dbl>,
## #   humidity <dbl>, cloud_cover <dbl>, moon_phase <dbl>,
## #   precip_intensity <dbl>, precip_probability <dbl>, precip_type <chr>,
## #   pressure <dbl>, summary <chr>, uv_index <dbl>, visibility <dbl>,
## #   wind_bearing <dbl>, wind_speed <dbl>, year <dbl>, geometry <POINT [m]>, and
## #   abbreviated variable names ¹​location_details, ²​classification
…
